{
  "ids": [
    6235
  ],
  "attackAnim": 6953,
  "attackSound": -1,
  "defenceAnim": 6955,
  "defendSound": -1,
  "deathAnim": 6956,
  "deathDelay": 6,
  "deathSound": -1,
  "respawnDelay": 59,
  "hitpoints": 860,
  "maxHit": 90,
  "attackStyle": "RANGE",
  "combatLevels": {
    "ATTACK": 1,
    "RANGE": 76,
    "STRENGTH": 1,
    "DEFENSE": 100,
    "MAGE": 1
  },
  "attackRange": -1,
  "attackGfx": -1,
  "attackProjectile": 1190,
  "agressivenessType": "AGGRESSIVE",
  "aggroDistance": 8,
  "deAggroDistance": -1,
  "maxDistFromSpawn": -1
}