{
  "names": [
    "Billy Goat"
  ],
  "attackAnim": 5338,
  "attackSound": 757,
  "defenceAnim": 5337,
  "defendSound": 759,
  "deathAnim": 5336,
  "deathDelay": 3,
  "deathSound": 758,
  "respawnDelay": 59,
  "hitpoints": 280,
  "maxHit": 63,
  "attackStyle": "MELEE",
  "attackBonus": "CRUSH_ATT",
  "combatLevels": {
    "ATTACK": 31,
    "RANGE": 1,
    "STRENGTH": 29,
    "DEFENSE": 29,
    "MAGE": 1
  },
  "attackRange": -1,
  "attackGfx": -1,
  "attackProjectile": -1,
  "agressivenessType": "PASSIVE",
  "aggroDistance": 4,
  "deAggroDistance": -1,
  "maxDistFromSpawn": -1
}